Verilog-Behavioral-GTK_File.vcd
$date
	Mon Nov 06 20:22:16 2017
$end
$version
	Icarus Verilog
$end
$timescale
	100ps
$end
$scope module Verilog_143_206 $end
$var wire 4 ! private_keyrec [3:0] $end
$var wire 16 " hex_out [15:0] $end
$var wire 4 # encrypt_data [3:0] $end
$var reg 1 $ clk $end
$var reg 16 % hex_in [15:0] $end
$var reg 4 & public_key [3:0] $end
$scope module inst $end
$var wire 1 $ clk $end
$var wire 16 ' hexadecimal_input [15:0] $end
$var wire 4 ( public_key [3:0] $end
$var wire 4 ) prv_key [3:0] $end
$var wire 16 * hex_out [15:0] $end
$var wire 4 + encrypt_out [3:0] $end
$var reg 4 , encrypt_data [3:0] $end
$var reg 4 - endata [3:0] $end
$var reg 16 . hex_in [15:0] $end
$var reg 16 / hexadecimal_output [15:0] $end
$var reg 4 0 private_key [3:0] $end
$var reg 4 1 prvi_key [3:0] $end
$var reg 4 2 publ_key [3:0] $end
$scope module decode $end
$var wire 4 3 endata [3:0] $end
$var wire 4 4 prvi_key [3:0] $end
$var wire 4 5 publ_key [3:0] $end
$var wire 16 6 hex_deci [15:0] $end
$var wire 4 7 binary_data [3:0] $end
$var reg 4 8 binary [3:0] $end
$var reg 4 9 converted_binary [3:0] $end
$var reg 4 : grey_code [3:0] $end
$var reg 16 ; hex_out [15:0] $end
$var reg 4 < negate [3:0] $end
$var reg 4 = xor_private [3:0] $end
$var reg 4 > xor_public [3:0] $end
$scope module dr $end
$var wire 4 ? binary [3:0] $end
$var reg 16 @ hex_deci [15:0] $end
$upscope $end
$scope module gg $end
$var wire 4 A grey_code [3:0] $end
$var reg 4 B binary_data [3:0] $end
$upscope $end
$upscope $end
$scope module encode $end
$var wire 1 $ clk $end
$var wire 16 C hex_in [15:0] $end
$var wire 4 D publ_key [3:0] $end
$var wire 4 E private_key [3:0] $end
$var wire 4 F out_data [3:0] $end
$var wire 4 G grey_out [3:0] $end
$var wire 4 H bin_out [0:3] $end
$var reg 4 I bin_inp [3:0] $end
$var reg 4 J encrypt_out [3:0] $end
$var reg 4 K in_data [3:0] $end
$var reg 4 L pre_in [3:0] $end
$var reg 4 M privatekey_out [3:0] $end
$var reg 4 N prv_key [3:0] $end
$var reg 4 O toconv [3:0] $end
$scope module b1 $end
$var wire 4 P bin_inp [3:0] $end
$var reg 4 Q grey_out [3:0] $end
$upscope $end
$scope module e1 $end
$var wire 16 R hex_in [15:0] $end
$var reg 4 S bin_out [3:0] $end
$upscope $end
$scope module p1 $end
$var wire 4 T pre_in [3:0] $end
$var reg 4 U private_key [3:0] $end
$upscope $end
$scope module r1 $end
$var wire 1 $ clk $end
$var wire 4 V in_data [3:0] $end
$var reg 4 W out_data [3:0] $end
$upscope $end
$upscope $end
$upscope $end
$upscope $end
$enddefinitions $end
#0
$dumpvars
bx W
bx V
bx U
bx T
bx S
bx R
bx Q
bx P
bx O
bx N
bx M
bx L
bx K
bx J
bx I
bx H
bx G
bx F
bx E
bx D
bx C
bx B
bx A
bx @
bx ?
bx >
bx =
bx <
bx ;
bx :
bx 9
bx 8
bx 7
bx 6
bx 5
bx 4
bx 3
bx 2
bx 1
bx 0
bx /
bx .
bx -
bx ,
bx +
bx *
bx )
bx (
bx '
bx &
bx %
0$
bx #
bx "
bx !
$end
#50
1$
#100
b1 "
b1 /
b1 *
b1 ;
b1 6
b1 @
b0 8
b0 ?
b0 <
b1111 9
b1111 7
b1111 B
b1000 :
b1000 A
b1000 =
b1001 >
b1 !
b1 0
b110 #
b110 ,
b1 1
b1 4
b110 -
b110 3
b1 )
b1 N
b110 +
b110 J
b1 F
b1 W
b1001 M
b1 K
b1 V
b1 E
b1 U
b1000 L
b1000 T
b1000 G
b1000 Q
b1111 I
b1111 P
b1111 O
b0 H
b0 S
b1111 2
b1111 5
b1111 D
b1 .
b1 C
b1 R
0$
b1111 &
b1111 (
b1 %
b1 '
#150
1$
#200
b10 "
b10 /
b10 *
b10 ;
b10 6
b10 @
b1 8
b1 ?
b1 <
b111 9
b101 M
b100 L
b100 T
b111 7
b111 B
b100 G
b100 Q
b100 :
b100 A
b1000 #
b1000 ,
b111 I
b111 P
b100 =
b1000 -
b1000 3
b111 O
b101 >
b1000 +
b1000 J
b1 H
b1 S
b1101 2
b1101 5
b1101 D
b10 .
b10 C
b10 R
0$
b1101 &
b1101 (
b10 %
b10 '
#250
1$
#300
b111 !
b111 0
b100 "
b100 /
b111 1
b111 4
b100 *
b100 ;
b111 )
b111 N
b100 6
b100 @
b111 F
b111 W
b10 8
b10 ?
b111 K
b111 V
b10 <
b111 E
b111 U
b1011 9
b1001 M
b1110 L
b1110 T
b1011 7
b1011 B
b1110 G
b1110 Q
b1110 :
b1110 A
b1110 #
b1110 ,
b1011 I
b1011 P
b1110 =
b1110 -
b1110 3
b1011 O
b1001 >
b1110 +
b1110 J
b10 H
b10 S
b111 2
b111 5
b111 D
b100 .
b100 C
b100 R
0$
b111 &
b111 (
b100 %
b100 '
#350
1$
#400
b1 !
b1 0
b1000 "
b1000 /
b1 1
b1 4
b1000 *
b1000 ;
b1 )
b1 N
b1000 6
b1000 @
b1 F
b1 W
b11 8
b11 ?
b1 K
b1 V
b11 <
b1 E
b1 U
b11 9
b11 M
b10 L
b10 T
b11 7
b11 B
b10 G
b10 Q
b10 :
b10 A
b1011 #
b1011 ,
b11 I
b11 P
b10 =
b1011 -
b1011 3
b11 O
b11 >
b1011 +
b1011 J
b11 H
b11 S
b1000 2
b1000 5
b1000 D
b1000 .
b1000 C
b1000 R
0$
b1000 &
b1000 (
b1000 %
b1000 '
#450
1$
#500
b111 !
b111 0
b10000 "
b10000 /
b111 1
b111 4
b10000 *
b10000 ;
b111 )
b111 N
b10000 6
b10000 @
b111 F
b111 W
b100 8
b100 ?
b111 K
b111 V
b100 <
b111 E
b111 U
b1101 9
b1100 M
b1011 L
b1011 T
b1101 7
b1101 B
b1011 G
b1011 Q
b1011 :
b1011 A
b101 #
b101 ,
b1101 I
b1101 P
b1011 =
b101 -
b101 3
b1101 O
b1100 >
b101 +
b101 J
b100 H
b100 S
b1001 2
b1001 5
b1001 D
b10000 .
b10000 C
b10000 R
0$
b1001 &
b1001 (
b10000 %
b10000 '
#550
1$
#600
b100000 "
b100000 /
b100000 *
b100000 ;
b100000 6
b100000 @
b101 8
b101 ?
b101 <
b101 9
b0 M
b111 L
b111 T
b101 7
b101 B
b111 G
b111 Q
b111 :
b111 A
b11 #
b11 ,
b101 I
b101 P
b111 =
b11 -
b11 3
b101 O
b0 >
b11 +
b11 J
b101 H
b101 S
b11 2
b11 5
b11 D
b100000 .
b100000 C
b100000 R
0$
b11 &
b11 (
b100000 %
b100000 '
#650
1$
#700
b1000000 "
b1000000 /
b1000000 *
b1000000 ;
b1000000 6
b1000000 @
b110 8
b110 ?
b110 <
b1001 9
b1010 M
b1101 L
b1101 T
b1001 7
b1001 B
b1101 G
b1101 Q
b1101 :
b1101 A
b0 #
b0 ,
b1001 I
b1001 P
b1101 =
b0 -
b0 3
b1001 O
b1010 >
b0 +
b0 J
b110 H
b110 S
b1010 2
b1010 5
b1010 D
b1000000 .
b1000000 C
b1000000 R
0$
b1010 &
b1010 (
b1000000 %
b1000000 '
#750
1$
#800
b1 !
b1 0
b10000000 "
b10000000 /
b1 1
b1 4
b10000000 *
b10000000 ;
b1 )
b1 N
b10000000 6
b10000000 @
b1 F
b1 W
b111 8
b111 ?
b1 K
b1 V
b111 <
b1 E
b1 U
b1 9
b0 M
b1 L
b1 T
b1 7
b1 B
b1 G
b1 Q
b1 :
b1 A
b101 #
b101 ,
b1 I
b1 P
b1 =
b101 -
b101 3
b1 O
b0 >
b101 +
b101 J
b111 H
b111 S
b101 2
b101 5
b101 D
b10000000 .
b10000000 C
b10000000 R
0$
b101 &
b101 (
b10000000 %
b10000000 '
#850
1$
#900
b11 !
b11 0
b100000000 "
b100000000 /
b11 1
b11 4
b100000000 *
b100000000 ;
b11 )
b11 N
b100000000 6
b100000000 @
b11 F
b11 W
b1000 8
b1000 ?
b11 K
b11 V
b1000 <
b11 E
b11 U
b1110 9
b1010 M
b1001 L
b1001 T
b1110 7
b1110 B
b1001 G
b1001 Q
b1001 :
b1001 A
b1011 #
b1011 ,
b1110 I
b1110 P
b1001 =
b1011 -
b1011 3
b1110 O
b1010 >
b1011 +
b1011 J
b1000 H
b1000 S
b1 2
b1 5
b1 D
b100000000 .
b100000000 C
b100000000 R
0$
b1 &
b1 (
b100000000 %
b100000000 '
#950
1$
#1000
b1000000000 "
b1000000000 /
b1000000000 *
b1000000000 ;
b1000000000 6
b1000000000 @
b1001 8
b1001 ?
b1001 <
b110 9
b110 M
b101 L
b101 T
b110 7
b110 B
b101 G
b101 Q
b101 :
b101 A
b0 #
b0 ,
b110 I
b110 P
b101 =
b0 -
b0 3
b110 O
b110 >
b0 +
b0 J
b1001 H
b1001 S
b110 2
b110 5
b110 D
b1000000000 .
b1000000000 C
b1000000000 R
0$
b110 &
b110 (
b1000000000 %
b1000000000 '
#1050
1$
#1100
b1111 !
b1111 0
b10000000000 "
b10000000000 /
b1111 1
b1111 4
b10000000000 *
b10000000000 ;
b1111 )
b1111 N
b10000000000 6
b10000000000 @
b1111 F
b1111 W
b1010 8
b1010 ?
b1111 K
b1111 V
b1010 <
b1111 E
b1111 U
b1010 9
b0 M
b1111 L
b1111 T
b1010 7
b1010 B
b1111 G
b1111 Q
b1111 :
b1111 A
b10 #
b10 ,
b1010 I
b1010 P
b1111 =
b10 -
b10 3
b1010 O
b0 >
b10 +
b10 J
b1010 H
b1010 S
b10 2
b10 5
b10 D
b10000000000 .
b10000000000 C
b10000000000 R
0$
b10 &
b10 (
b10000000000 %
b10000000000 '
#1150
1$
#1200
b11 !
b11 0
b100000000000 "
b100000000000 /
b11 1
b11 4
b100000000000 *
b100000000000 ;
b11 )
b11 N
b100000000000 6
b100000000000 @
b11 F
b11 W
b1011 8
b1011 ?
b11 K
b11 V
b1011 <
b11 E
b11 U
b10 9
b0 M
b11 L
b11 T
b10 7
b10 B
b11 G
b11 Q
b11 :
b11 A
b100 #
b100 ,
b10 I
b10 P
b11 =
b100 -
b100 3
b10 O
b0 >
b100 +
b100 J
b1011 H
b1011 S
b100 2
b100 5
b100 D
b100000000000 .
b100000000000 C
b100000000000 R
0$
b100 &
b100 (
b100000000000 %
b100000000000 '
#1250
1$
#1300
b1000000000000 "
b1000000000000 /
b1000000000000 *
b1000000000000 ;
b1000000000000 6
b1000000000000 @
b1100 8
b1100 ?
b1100 <
b1100 9
b1001 M
b1010 L
b1010 T
b1100 7
b1100 B
b1010 G
b1010 Q
b1010 :
b1010 A
b1001 #
b1001 ,
b1100 I
b1100 P
b1010 =
b1001 -
b1001 3
b1100 O
b1001 >
b1001 +
b1001 J
b1100 H
b1100 S
b0 2
b0 5
b0 D
b1000000000000 .
b1000000000000 C
b1000000000000 R
0$
b0 &
b0 (
b1000000000000 %
b1000000000000 '
#1350
1$
#1400
b10000000000000 "
b10000000000000 /
b10000000000000 *
b10000000000000 ;
b10000000000000 6
b10000000000000 @
b1101 8
b1101 ?
b1101 <
b100 9
b101 M
b110 L
b110 T
b100 7
b100 B
b110 G
b110 Q
b110 :
b110 A
b1011 #
b1011 ,
b100 I
b100 P
b110 =
b1011 -
b1011 3
b100 O
b101 >
b1011 +
b1011 J
b1101 H
b1101 S
b1110 2
b1110 5
b1110 D
b10000000000000 .
b10000000000000 C
b10000000000000 R
0$
b1110 &
b1110 (
b10000000000000 %
b10000000000000 '
#1450
1$
#1500
b100000000000000 "
b100000000000000 /
b100000000000000 *
b100000000000000 ;
b100000000000000 6
b100000000000000 @
b1110 8
b1110 ?
b1110 <
b1000 9
b1111 M
b1100 L
b1100 T
b1000 7
b1000 B
b1100 G
b1100 Q
b1100 :
b1100 A
b10 #
b10 ,
b1000 I
b1000 P
b1100 =
b10 -
b10 3
b1000 O
b1111 >
b10 +
b10 J
b1110 H
b1110 S
b1101 2
b1101 5
b1101 D
b100000000000000 .
b100000000000000 C
b100000000000000 R
0$
b1101 &
b1101 (
b100000000000000 %
b100000000000000 '
#1550
1$
#1600
b0 !
b0 0
b1000000000000000 "
b1000000000000000 /
b0 1
b0 4
b1000000000000000 *
b1000000000000000 ;
b0 )
b0 N
b1000000000000000 6
b1000000000000000 @
b0 F
b0 W
b1111 8
b1111 ?
b0 K
b0 V
b1111 <
b0 E
b0 U
b0 9
b0 M
b0 L
b0 T
b0 7
b0 B
b0 G
b0 Q
b0 :
b0 A
b1011 #
b1011 ,
b0 I
b0 P
b0 =
b1011 -
b1011 3
b0 O
b0 >
b1011 +
b1011 J
b1111 H
b1111 S
b1011 2
b1011 5
b1011 D
b1000000000000000 .
b1000000000000000 C
b1000000000000000 R
0$
b1011 &
b1011 (
b1000000000000000 %
b1000000000000000 '
