Verilog-Dataflow-GTK_File.vcd
$date
	Mon Nov 06 20:20:24 2017
$end
$version
	Icarus Verilog
$end
$timescale
	100ps
$end
$scope module Verilog_143_206 $end
$var wire 4 ! private_keyrec [3:0] $end
$var wire 16 " hex_out [15:0] $end
$var wire 4 # encrypt_data [3:0] $end
$var reg 1 $ clk $end
$var reg 16 % hex_in [15:0] $end
$var reg 4 & public_key [3:0] $end
$scope module inst $end
$var wire 1 $ clk $end
$var wire 16 ' hexadecimal_input [15:0] $end
$var wire 4 ( public_key [3:0] $end
$var wire 4 ) private_key [3:0] $end
$var wire 16 * hexadecimal_output [15:0] $end
$var wire 4 + encrypt_data [3:0] $end
$scope module decode $end
$var wire 4 , publ_key [3:0] $end
$var wire 4 - xor_public [3:0] $end
$var wire 4 . xor_private [3:0] $end
$var wire 4 / prvi_key [3:0] $end
$var wire 4 0 negate [3:0] $end
$var wire 16 1 hexadecimal_output [15:0] $end
$var wire 4 2 endata [3:0] $end
$var wire 4 3 converted_binary [3:0] $end
$scope module dr $end
$var wire 4 4 binary [3:0] $end
$var wire 16 5 hexadeci [15:0] $end
$upscope $end
$scope module gg $end
$var wire 4 6 grey_code [3:0] $end
$var wire 4 7 binary_data [3:0] $end
$upscope $end
$upscope $end
$scope module encode $end
$var wire 1 $ clk $end
$var wire 16 8 hexadecimal_input [15:0] $end
$var wire 4 9 public_key [3:0] $end
$var wire 4 : toconv [3:0] $end
$var wire 4 ; privatekey_out [3:0] $end
$var wire 4 < private_key [3:0] $end
$var wire 4 = p [3:0] $end
$var wire 4 > final_encoded [3:0] $end
$var wire 4 ? encoder_out [0:3] $end
$var wire 4 @ binary_to_grey_out [3:0] $end
$scope module b1 $end
$var wire 4 A bin_inp [3:0] $end
$var wire 4 B grey_out [3:0] $end
$upscope $end
$scope module e1 $end
$var wire 16 C hexadecimal_input [15:0] $end
$var wire 4 D bin_out [3:0] $end
$upscope $end
$scope module p1 $end
$var wire 4 E pre_in [3:0] $end
$var wire 4 F private_key [3:0] $end
$upscope $end
$scope module rr1 $end
$var wire 1 $ clk $end
$var wire 4 G in_data [3:0] $end
$var reg 4 H out_data [3:0] $end
$upscope $end
$upscope $end
$upscope $end
$upscope $end
$enddefinitions $end
#0
$dumpvars
bx H
bx G
bx F
bx E
bx D
bx C
bx B
bx A
bx @
bx ?
bx >
bx =
bx <
bx ;
bx :
bx 9
bx 8
bx 7
bx 6
bx 5
bx 4
bx 3
bx 2
bx 1
bx 0
bx /
bx .
bx -
bx ,
bx +
bx *
bx )
bx (
bx '
bx &
bx %
0$
bx #
bx "
bx !
$end
#50
1$
#100
b1 "
b1 *
b1 1
b1 5
b0 0
b0 4
b1111 3
b1111 7
b1000 .
b1000 6
b1001 -
b110 #
b110 +
b110 2
b110 >
b1001 ;
b1 !
b1 )
b1 /
b1 <
b1 H
b1 =
b1 F
b1 G
b1000 @
b1000 B
b1000 E
b1111 :
b1111 A
b0 ?
b0 D
0$
b1111 &
b1111 (
b1111 ,
b1111 9
b1 %
b1 '
b1 8
b1 C
#150
1$
#200
b101 ;
b10 "
b10 *
b10 1
b10 5
b100 @
b100 B
b100 E
b111 :
b111 A
b1 0
b1 4
b1 ?
b1 D
b111 3
b111 7
b100 .
b100 6
b101 -
b1000 #
b1000 +
b1000 2
b1000 >
0$
b1101 &
b1101 (
b1101 ,
b1101 9
b10 %
b10 '
b10 8
b10 C
#250
1$
#300
b111 !
b111 )
b111 /
b111 <
b111 H
b111 =
b111 F
b111 G
b1001 ;
b1110 @
b1110 B
b1110 E
b1011 :
b1011 A
b100 "
b100 *
b100 1
b100 5
b10 ?
b10 D
b10 0
b10 4
b1011 3
b1011 7
b1110 .
b1110 6
b1001 -
b1110 #
b1110 +
b1110 2
b1110 >
0$
b111 &
b111 (
b111 ,
b111 9
b100 %
b100 '
b100 8
b100 C
#350
1$
#400
b1 !
b1 )
b1 /
b1 <
b1 H
b1 =
b1 F
b1 G
b11 ;
b10 @
b10 B
b10 E
b11 :
b11 A
b1000 "
b1000 *
b1000 1
b1000 5
b11 ?
b11 D
b11 0
b11 4
b11 3
b11 7
b10 .
b10 6
b11 -
b1011 #
b1011 +
b1011 2
b1011 >
0$
b1000 &
b1000 (
b1000 ,
b1000 9
b1000 %
b1000 '
b1000 8
b1000 C
#450
1$
#500
b111 !
b111 )
b111 /
b111 <
b111 H
b111 =
b111 F
b111 G
b1100 ;
b10000 "
b10000 *
b10000 1
b10000 5
b1011 @
b1011 B
b1011 E
b1101 :
b1101 A
b100 0
b100 4
b100 ?
b100 D
b1101 3
b1101 7
b1011 .
b1011 6
b1100 -
b101 #
b101 +
b101 2
b101 >
0$
b1001 &
b1001 (
b1001 ,
b1001 9
b10000 %
b10000 '
b10000 8
b10000 C
#550
1$
#600
b111 !
b111 )
b111 /
b111 <
b111 H
b111 =
b111 F
b111 G
b0 ;
b111 @
b111 B
b111 E
b100000 "
b100000 *
b100000 1
b100000 5
b101 :
b101 A
b101 0
b101 4
b101 ?
b101 D
b101 3
b101 7
b111 .
b111 6
b0 -
b11 #
b11 +
b11 2
b11 >
0$
b11 &
b11 (
b11 ,
b11 9
b100000 %
b100000 '
b100000 8
b100000 C
#650
1$
#700
b1010 ;
b1101 @
b1101 B
b1101 E
b1000000 "
b1000000 *
b1000000 1
b1000000 5
b1001 :
b1001 A
b110 0
b110 4
b110 ?
b110 D
b1001 3
b1001 7
b1101 .
b1101 6
b1010 -
b0 #
b0 +
b0 2
b0 >
0$
b1010 &
b1010 (
b1010 ,
b1010 9
b1000000 %
b1000000 '
b1000000 8
b1000000 C
#750
1$
#800
b1 !
b1 )
b1 /
b1 <
b1 H
b1 =
b1 F
b1 G
b0 ;
b10000000 "
b10000000 *
b10000000 1
b10000000 5
b1 @
b1 B
b1 E
b1 :
b1 A
b111 0
b111 4
b111 ?
b111 D
b1 3
b1 7
b1 .
b1 6
b0 -
b101 #
b101 +
b101 2
b101 >
0$
b101 &
b101 (
b101 ,
b101 9
b10000000 %
b10000000 '
b10000000 8
b10000000 C
#850
1$
#900
b11 !
b11 )
b11 /
b11 <
b11 H
b11 =
b11 F
b11 G
b100000000 "
b100000000 *
b100000000 1
b100000000 5
b1010 ;
b1001 @
b1001 B
b1001 E
b1000 0
b1000 4
b1110 :
b1110 A
b1110 3
b1110 7
b1000 ?
b1000 D
b1001 .
b1001 6
b1010 -
b1011 #
b1011 +
b1011 2
b1011 >
0$
b1 &
b1 (
b1 ,
b1 9
b100000000 %
b100000000 '
b100000000 8
b100000000 C
#950
1$
#1000
b1000000000 "
b1000000000 *
b1000000000 1
b1000000000 5
b110 ;
b1001 0
b1001 4
b101 @
b101 B
b101 E
b110 :
b110 A
b110 3
b110 7
b1001 ?
b1001 D
b101 .
b101 6
b110 -
b0 #
b0 +
b0 2
b0 >
0$
b110 &
b110 (
b110 ,
b110 9
b1000000000 %
b1000000000 '
b1000000000 8
b1000000000 C
#1050
1$
#1100
b1111 !
b1111 )
b1111 /
b1111 <
b1111 H
b1111 =
b1111 F
b1111 G
b10000000000 "
b10000000000 *
b10000000000 1
b10000000000 5
b0 ;
b1010 0
b1010 4
b1111 @
b1111 B
b1111 E
b1010 :
b1010 A
b1010 3
b1010 7
b1010 ?
b1010 D
b1111 .
b1111 6
b0 -
b10 #
b10 +
b10 2
b10 >
0$
b10 &
b10 (
b10 ,
b10 9
b10000000000 %
b10000000000 '
b10000000000 8
b10000000000 C
#1150
1$
#1200
b11 !
b11 )
b11 /
b11 <
b11 H
b100000000000 "
b100000000000 *
b100000000000 1
b100000000000 5
b11 =
b11 F
b11 G
b0 ;
b1011 0
b1011 4
b11 @
b11 B
b11 E
b10 3
b10 7
b10 :
b10 A
b11 .
b11 6
b1011 ?
b1011 D
b0 -
b100 #
b100 +
b100 2
b100 >
0$
b100 &
b100 (
b100 ,
b100 9
b100000000000 %
b100000000000 '
b100000000000 8
b100000000000 C
#1250
1$
#1300
b1000000000000 "
b1000000000000 *
b1000000000000 1
b1000000000000 5
b1001 ;
b1100 0
b1100 4
b1010 @
b1010 B
b1010 E
b1100 3
b1100 7
b1100 :
b1100 A
b1010 .
b1010 6
b1100 ?
b1100 D
b1001 -
b1001 #
b1001 +
b1001 2
b1001 >
0$
b0 &
b0 (
b0 ,
b0 9
b1000000000000 %
b1000000000000 '
b1000000000000 8
b1000000000000 C
#1350
1$
#1400
b10000000000000 "
b10000000000000 *
b10000000000000 1
b10000000000000 5
b101 ;
b1101 0
b1101 4
b110 @
b110 B
b110 E
b100 3
b100 7
b100 :
b100 A
b110 .
b110 6
b1101 ?
b1101 D
b101 -
b1011 #
b1011 +
b1011 2
b1011 >
0$
b1110 &
b1110 (
b1110 ,
b1110 9
b10000000000000 %
b10000000000000 '
b10000000000000 8
b10000000000000 C
#1450
1$
#1500
b11 !
b11 )
b11 /
b11 <
b11 H
b100000000000000 "
b100000000000000 *
b100000000000000 1
b100000000000000 5
b11 =
b11 F
b11 G
b1110 0
b1110 4
b1111 ;
b1000 3
b1000 7
b1100 @
b1100 B
b1100 E
b1000 :
b1000 A
b1100 .
b1100 6
b1110 ?
b1110 D
b1111 -
b10 #
b10 +
b10 2
b10 >
0$
b1101 &
b1101 (
b1101 ,
b1101 9
b100000000000000 %
b100000000000000 '
b100000000000000 8
b100000000000000 C
#1550
1$
#1600
b0 !
b0 )
b0 /
b0 <
b0 H
b1000000000000000 "
b1000000000000000 *
b1000000000000000 1
b1000000000000000 5
b0 =
b0 F
b0 G
b1111 0
b1111 4
b0 ;
b0 3
b0 7
b0 @
b0 B
b0 E
b0 .
b0 6
b0 :
b0 A
b0 -
b1011 #
b1011 +
b1011 2
b1011 >
b1111 ?
b1111 D
0$
b1011 &
b1011 (
b1011 ,
b1011 9
b1000000000000000 %
b1000000000000000 '
b1000000000000000 8
b1000000000000000 C
